{
  "musics" : [
    {
      "artist": "DPR LIVE",
      "songTitle": "Jasmine",
      "imgPath": "../cover/1.jpg",
      "audioPath": "./music/1.mp3"
    },
    {
      "artist": "CHEEZE(치즈)",
      "songTitle": "Madeleine Love",
      "imgPath": "../cover/2.jpg",
      "audioPath": "./music/2.mp3"
    },
    {
      "artist": "Queen",
      "songTitle": "Another One Bites the Dust",
      "imgPath": "../cover/3.jpg",
      "audioPath": "./music/3.mp3"
    },
    {
      "artist": "NewJeans",
      "songTitle": "ETA",
      "imgPath": "../cover/4.jpg",
      "audioPath": "./music/4.mp3"
    },
    {
      "artist": "NewJeans",
      "songTitle": "Cool With You",
      "imgPath": "../cover/5.jpg",
      "audioPath": "./music/5.mp3"
    },
    {
      "artist": "NewJeans",
      "songTitle": "GODS",
      "imgPath": "../cover/6.jpg",
      "audioPath": "./music/6.mp3"
    },
    {
      "artist": "태연",
      "songTitle": "Make Me Love You",
      "imgPath": "../cover/7.jpg",
      "audioPath": "./music/7.mp3"
    },
    {
      "artist": "아이유",
      "songTitle": "관객이 될게",
      "imgPath": "../cover/8.jpg",
      "audioPath": "./music/8.mp3"
    },
    {
      "artist": "Dua Lipa",
      "songTitle": "Illusion",
      "imgPath": "../cover/9.jpg",
      "audioPath": "./music/9.mp3"
    },
    {
      "artist": "(여자)아이들",
      "songTitle": "나는 아픈 건 딱 질색이니까",
      "imgPath": "../cover/10.jpg",
      "audioPath": "./music/10.mp3"
    },
    {
      "artist": "IVE",
      "songTitle": "I AM",
      "imgPath": "../cover/11.jpg",
      "audioPath": "./music/11.mp3"
    },
    {
      "artist": "Aespa",
      "songTitle": "Drama",
      "imgPath": "../cover/12.jpg",
      "audioPath": "./music/12.mp3"
    }
  ]



}
